commit f674ceb5bbf075601ec16e495f148ac81f1ae4aa
Author: themelroser <themelroser@gmail.com>
Date:   Thu Apr 4 22:09:09 2013 -0600

    PA4 Submission

commit 33eb9406d85f6fc22a6c0ad46b172b60a6520383
Author: themelroser <themelroser@gmail.com>
Date:   Wed Apr 3 09:44:29 2013 -0600

    Parser almost finished

commit 5bdbb3d7a6a5860bbed56fdd6d069f516bdf7c3b
Author: themelroser <themelroser@gmail.com>
Date:   Tue Apr 2 13:04:06 2013 -0600

    Re-arranged testing folder. Commented out mj.cup for PA4. Implemented Meggy.StartTone() and wrote component test.

commit 2d3af6e7fdee739d44648ea78c1d0eefb77a2e17
Author: themelroser <themelroser@gmail.com>
Date:   Sun Mar 31 16:31:39 2013 -0600

    Added more PA4 test cases

commit e1cebf80e56543748a6b49ca718ddbc01bc15964
Author: themelroser <themelroser@gmail.com>
Date:   Sun Mar 31 16:21:08 2013 -0600

    PA4 Initial state

commit 790e89f570cf20a3a6f28c8e823901b12bcabdee
Author: themelroser <themelroser@gmail.com>
Date:   Fri Mar 8 20:39:06 2013 -0700

    Added make pack to Makefile, Added testcases up to PA4

commit 08c4fa7c17d37564462c932872f19b77ef1d3e12
Author: themelroser <themelroser@gmail.com>
Date:   Fri Mar 8 18:11:33 2013 -0700

    Adding PA3 source

commit cb9a60dc7eead37a31748b994443e25be5123033
Author: themelroser <themelroser@gmail.com>
Date:   Fri Mar 8 17:58:54 2013 -0700

    First commit. Adding a README.

[2]+  Stopped                 git log







